General Interface for GAM Models — gam_mod • modelgam
…
m750_train  <- m750_extended %>% drop_na()
m750_future <- m750_extended %>% filter(is.na(value))

model_fit_gam <- gam_mod(mode = "regression") %>%
    set_engine("gam", family=Gamma(link="log"), method = "REML") %>%
    fit(value ~ s(date_month, k = 12) 
        + s(date_num) 
        + s(lag_24) 
        + s(date_num, date_month), 
        data = m750_train)

model_fit_gam %>% predict(m750_future, type = "numeric") 

#> # A tibble: 24 x 1
#>    .pred
#>    <dbl>
#>  1  9.18
#>  2  9.20
#>  3  9.26
#>  4  9.31
#>  5  9.33
#>  6  9.32
#>  7  9.32
#>  8  9.32
#>  9  9.34
#> 10  9.35
#> # … with 14 more rows
…
